Stabaek;28;9;9;10
Vaalerenga;28;8;10;10
Stromsgodset;28;6;8;14
Odd;28;14;7;7
Haugesund;28;8;12;8
Ranheim;28;6;6;16
Viking;28;12;7;9
BodoGlimt;28;14;9;5
Tromso;28;8;5;15
Kristiansund;28;11;8;9
Brann;28;10;10;8
Mjondalen;28;5;12;11
Lillestroem;28;7;8;13
Molde;28;19;5;4
Sarpsborg;28;5;13;10
Rosenborg;28;13;9;6